*** Darwin 20x40 ***
Turn = 0.
  0123456789012345678901234567890123456789
0 h.......................................
1 .f......................................
2 .h......................................
3 ..ff.f..................................
4 ....t...................................
5 .....r..................................
6 .......r................................
7 .......t................................
8 ........t...............................
9 .t.......t..............................
0 ........................................
1 ........................................
2 ........................................
3 ........................................
4 ........................................
5 ........................................
6 ........................................
7 ........................................
8 ........................................
9 ........................................

Turn = 5.
  0123456789012345678901234567890123456789
0 .....h..................................
1 .f......................................
2 h.......................................
3 ..ff.f..................................
4 ....t...................................
5 r.......................................
6 ............r...........................
7 .......t................................
8 ........t...............................
9 .t.......t..............................
0 ........................................
1 ........................................
2 ........................................
3 ........................................
4 ........................................
5 ........................................
6 ........................................
7 ........................................
8 ........................................
9 ........................................

Turn = 10.
  0123456789012345678901234567890123456789
0 ..........h.............................
1 .f......................................
2 r.......................................
3 r.ff.f..................................
4 ....t...................................
5 ........................................
6 .................r......................
7 .......t................................
8 ........t...............................
9 .t.......t..............................
0 ........................................
1 ........................................
2 ........................................
3 ........................................
4 ........................................
5 ........................................
6 ........................................
7 ........................................
8 ........................................
9 ........................................

*** Darwin 10x10 ***
Turn = 0.
  0123456789
0 h.........
1 ..t.......
2 .h........
3 ....t.....
4 ..........
5 .....hrt..
6 ..........
7 .....f....
8 ......f..f
9 .......rr.

Turn = 5.
  0123456789
0 h.........
1 ..t.......
2 ..........
3 ....t.....
4 ..........
5 ......tt..
6 ..........
7 .h...f....
8 ......r.r.
9 ....rr...r

Turn = 10.
  0123456789
0 h.........
1 ..t.......
2 ..........
3 ....t.....
4 ..........
5 ......tt.r
6 ..........
7 .....f....
8 .rr.......
9 r...rr....

Turn = 15.
  0123456789
0 h........r
1 ..t.......
2 ..........
3 ..r.t.....
4 ..........
5 r...r.tt..
6 ..........
7 ......r...
8 ....r.....
9 .r........

Turn = 20.
  0123456789
0 r..r.....r
1 rr..r.....
2 ..........
3 .r........
4 ..........
5 ......tt..
6 .........r
7 ..........
8 r.........
9 ......r...

*** Darwin 14x12 ***
Turn = 0.
  012345678901
0 h...........
1 ..f.........
2 .f..........
3 ....f.......
4 ...f..f.....
5 .....f......
6 ....f.......
7 ............
8 ............
9 ............
0 ............
1 ............
2 ............
3 ............

Turn = 7.
  012345678901
0 .......h....
1 ..f.........
2 .f..........
3 ....f.......
4 ...f..f.....
5 .....f......
6 ....f.......
7 ............
8 ............
9 ............
0 ............
1 ............
2 ............
3 ............

Turn = 14.
  012345678901
0 ...........h
1 ..f.........
2 .f..........
3 ....f.......
4 ...f..f.....
5 .....f......
6 ....f.......
7 ............
8 ............
9 ............
0 ............
1 ............
2 ............
3 ............

*** Darwin 35x20 ***
Turn = 0.
  01234567890123456789
0 h...................
1 ..f.................
2 .f..................
3 ....t..........t....
4 ...f..f.............
5 .....h..............
6 ....r...............
7 .......t............
8 ....................
9 ........t...........
0 ...........tt.......
1 ....................
2 ....................
3 ............t.......
4 ............rtr.....
5 ....................
6 ....................
7 .....h..............
8 ...................h
9 ...................r
0 ....................
1 ....................
2 ....................
3 ....................
4 ....................
5 ....................
6 ....................
7 ....................
8 ....................
9 ....................
0 ....................
1 ....................
2 ....................
3 ....................
4 ....................

Turn = 15.
  01234567890123456789
0 ...r..........rr....
1 ..f.................
2 .f..................
3 ....t..........t....
4 ...f..f.............
5 ....................
6 ....................
7 .......t............
8 ....................
9 ........t...........
0 ...........t.......r
1 ....................
2 ...................r
3 r...................
4 .............t......
5 ....................
6 ....................
7 ...................h
8 ...................h
9 ....................
0 .....r..............
1 ....................
2 ....................
3 ....................
4 ....................
5 ....................
6 ....................
7 ....................
8 ....................
9 ....................
0 ....................
1 ....................
2 ....................
3 ....................
4 ...................r

Turn = 30.
  01234567890123456789
0 ............r...r...
1 ..f.................
2 .f..................
3 ....t..........t....
4 ...f..f.............
5 ....................
6 ....................
7 .......t............
8 ....................
9 ........t...........
0 ...........t.......r
1 ....................
2 ....................
3 ....................
4 .............t......
5 ...........r........
6 ....................
7 ..........r...r.....
8 ....................
9 ....................
0 ....................
1 ....................
2 ...................r
3 ....................
4 ....................
5 ....................
6 ....................
7 ...................r
8 r...................
9 ....................
0 ....................
1 ....................
2 ....................
3 ....................
4 .....r..............

*** Darwin 15x16 ***
Turn = 0.
  0123456789012345
0 ................
1 ..frfrfrfr......
2 .h..............
3 .t..............
4 .h..............
5 .t..............
6 .h..............
7 .t..............
8 .h..............
9 ................
0 ................
1 ................
2 ................
3 ................
4 ................

Turn = 6.
  0123456789012345
0 .....rr....r.r..
1 ..f.rr..f.......
2 h...............
3 .t..............
4 .t..............
5 .t..............
6 .t..............
7 .t..............
8 .t..............
9 ................
0 ................
1 ................
2 ................
3 ................
4 ................

Turn = 12.
  0123456789012345
0 r..........r.r..
1 ..f.......r.r...
2 h.............r.
3 .t..............
4 .t..............
5 .t..............
6 .t..............
7 .t..r...........
8 .t..............
9 ................
0 ................
1 ................
2 ................
3 ................
4 ................

Turn = 18.
  0123456789012345
0 .....r...r....rr
1 ..f............r
2 h...............
3 .t..............
4 .t..............
5 .t..............
6 .t..............
7 .t..............
8 .t............r.
9 ................
0 ................
1 ................
2 ................
3 ....r...........
4 ................

Turn = 24.
  0123456789012345
0 .......r.r.r....
1 ..f....r........
2 h...............
3 .t..............
4 .t..............
5 .t.............r
6 .t..............
7 .t..............
8 .t..............
9 ................
0 ................
1 ................
2 ................
3 ................
4 ........r.....r.

Turn = 30.
  0123456789012345
0 .r.r.r..........
1 ..f.............
2 h...............
3 .t..............
4 .t..............
5 .t..............
6 .t..............
7 .t.....r........
8 .t..............
9 ................
0 ................
1 ...............r
2 ...........rr...
3 ................
4 ................

*** Darwin 11x11 ***
Turn = 0.
  01234567890
0 rff........
1 .rf........
2 .rf........
3 ....r......
4 ...fr......
5 ...........
6 ...........
7 ...........
8 ...........
9 ...........
0 ...........

Turn = 5.
  01234567890
0 rrrrr......
1 r..........
2 r..........
3 ...........
4 ...f.....r.
5 .r.........
6 ...........
7 ...........
8 ...........
9 ...........
0 ...........

Turn = 10.
  01234567890
0 rrr........
1 ...........
2 r..r.......
3 ...........
4 ...f.......
5 ....r......
6 ...........
7 r.........r
8 ...........
9 ...........
0 .r.........

Turn = 15.
  01234567890
0 ..r..r.r...
1 ...........
2 ...........
3 ...........
4 .......r...
5 ...........
6 ...r.......
7 r..........
8 ...........
9 ..r........
0 r...r.....r

Turn = 20.
  01234567890
0 .......r.rr
1 ...........
2 ...........
3 ..........r
4 ...........
5 ..........r
6 ...........
7 r..........
8 ...r.......
9 .......r...
0 r..r.......

*** Darwin 16x16 ***
Turn = 0.
  0123456789012345
0 ................
1 ............t...
2 .......f........
3 ...h.r..........
4 .......t........
5 ..t.............
6 ................
7 .......r.h......
8 ................
9 ........f.......
0 ................
1 ...........r....
2 ................
3 ............f...
4 ................
5 ................

Turn = 5.
  0123456789012345
0 ................
1 ............t...
2 .......f.h......
3 ........h.......
4 .......t........
5 ..t.............
6 ................
7 ..r.............
8 .....r..........
9 ........f.......
0 ................
1 ...............r
2 ................
3 ............f...
4 ................
5 ................

Turn = 10.
  0123456789012345
0 .........h......
1 ............t...
2 .......f........
3 .............h..
4 .......t........
5 ..t.............
6 ................
7 ................
8 ................
9 r.......f.......
0 ................
1 ................
2 ................
3 .....r......f...
4 ................
5 ...............r

*** Darwin 15x15 ***
Turn = 0.
  012345678901234
0 ...............
1 ...............
2 ...............
3 ...h...........
4 ...............
5 ...............
6 ...............
7 ...............
8 ...............
9 ...............
0 ...............
1 ...............
2 ...............
3 ............f..
4 ...............

Turn = 5.
  012345678901234
0 ...............
1 ...............
2 ...............
3 ........h......
4 ...............
5 ...............
6 ...............
7 ...............
8 ...............
9 ...............
0 ...............
1 ...............
2 ...............
3 ............f..
4 ...............

Turn = 10.
  012345678901234
0 ...............
1 ...............
2 ...............
3 .............h.
4 ...............
5 ...............
6 ...............
7 ...............
8 ...............
9 ...............
0 ...............
1 ...............
2 ...............
3 ............f..
4 ...............

*** Darwin 15x15 ***
Turn = 0.
  012345678901234
0 ...............
1 ............t..
2 ...............
3 ...h...........
4 ...............
5 ..t............
6 ...............
7 .......r.......
8 ...............
9 ........f......
0 ...............
1 ...........r...
2 ...............
3 ............f..
4 ...............

Turn = 1.
  012345678901234
0 ...............
1 ............t..
2 ...............
3 ....h..........
4 ...............
5 ..t............
6 ...............
7 ......r........
8 ...............
9 ........f......
0 ...............
1 ............r..
2 ...............
3 ............f..
4 ...............

Turn = 2.
  012345678901234
0 ...............
1 ............t..
2 ...............
3 .....h.........
4 ...............
5 ..t............
6 ...............
7 .....r.........
8 ...............
9 ........f......
0 ...............
1 .............r.
2 ...............
3 ............f..
4 ...............

Turn = 3.
  012345678901234
0 ...............
1 ............t..
2 ...............
3 ......h........
4 ...............
5 ..t............
6 ...............
7 ....r..........
8 ...............
9 ........f......
0 ...............
1 ..............r
2 ...............
3 ............f..
4 ...............

*** Darwin 10x10 ***
Turn = 0.
  0123456789
0 ..........
1 .r........
2 ..........
3 ..........
4 ..........
5 ..........
6 ..........
7 ..........
8 ..........
9 ..........

Turn = 5.
  0123456789
0 ..........
1 ..........
2 ..........
3 ..........
4 ..........
5 ..........
6 .r........
7 ..........
8 ..........
9 ..........

Turn = 10.
  0123456789
0 ..........
1 ..........
2 ..........
3 ..........
4 ..........
5 ..........
6 ..........
7 ..........
8 ..........
9 r.........

Turn = 15.
  0123456789
0 ..........
1 ..........
2 ..........
3 ..........
4 ..........
5 ..........
6 ..........
7 r.........
8 ..........
9 ..........

Turn = 20.
  0123456789
0 ..........
1 ..........
2 r.........
3 ..........
4 ..........
5 ..........
6 ..........
7 ..........
8 ..........
9 ..........

*** Darwin 15x15 ***
Turn = 0.
  012345678901234
0 ...............
1 ...............
2 ...............
3 ...h...........
4 ...............
5 ..t............
6 ...............
7 ...............
8 ...............
9 ...............
0 ...............
1 ...........r...
2 ...............
3 ............f..
4 ...............

Turn = 1.
  012345678901234
0 ...............
1 ...............
2 ...............
3 ....h..........
4 ...............
5 ..t............
6 ...............
7 ...............
8 ...............
9 ...............
0 ...............
1 ............r..
2 ...............
3 ............f..
4 ...............

Turn = 2.
  012345678901234
0 ...............
1 ...............
2 ...............
3 .....h.........
4 ...............
5 ..t............
6 ...............
7 ...............
8 ...............
9 ...............
0 ...............
1 .............r.
2 ...............
3 ............f..
4 ...............

Turn = 3.
  012345678901234
0 ...............
1 ...............
2 ...............
3 ......h........
4 ...............
5 ..t............
6 ...............
7 ...............
8 ...............
9 ...............
0 ...............
1 ..............r
2 ...............
3 ............f..
4 ...............
